Minghao’s Data Visualization Archive - Take-home Exercise 4
…
# Merge two dataset, sort by country and month ascending
import_export_by_country <- left_join(import_by_country,export_by_country,
                                      by=join_by('Country', 'Month')) %>%
  mutate(Month=ym(Month)) %>%
  arrange(Country,Month)

import_export_by_country

# A tibble: 4,032 × 4
   Country                        Month      Import Export
   <chr>                          <date>      <dbl>  <dbl>
 1 Afghanistan (Thousand Dollars) 2020-01-01      7   3606
 2 Afghanistan (Thousand Dollars) 2020-02-01     66   2199
 3 Afghanistan (Thousand Dollars) 2020-03-01      6   5293
 4 Afghanistan (Thousand Dollars) 2020-04-01     16   1771
 5 Afghanistan (Thousand Dollars) 2020-05-01     15   3709
 6 Afghanistan (Thousand Dollars) 2020-06-01     72   1752
 7 Afghanistan (Thousand Dollars) 2020-07-01     11   2656
 8 Afghanistan (Thousand Dollars) 2020-08-01     38    993
 9 Afghanistan (Thousand Dollars) 2020-09-01     13   2796
10 Afghanistan (Thousand Dollars) 2020-10-01     19    967
# … with 4,022 more rows
